Graph 1997m6-2001m12
…
From debtors perspective

Verify that all nodes involved in relations are in dbFcialEnts. The following table shows the relations in which a debtor does not appear in dbFcialEnts. anti_join(), returns rows in relations without a match in dbFcialEnts.

missDebtors <- anti_join(relations, 
                    mutate(dbFcialEnts, IDENT_DEUDORA = IDent),
                    by=c('FECHAdata', 'IDENT_DEUDORA')) %>%
                  group_by(., IDENT_DEUDORA) %>%
                  summarise(n = n())

## `summarise()` ungrouping output (override with `.groups` argument)

missDebtors

## # A tibble: 50 x 2
##    IDENT_DEUDORA     n
##            <dbl> <int>
##  1             1   108
##  2             6    72
##  3            12    54
##  4            25    22
##  5            39    10
##  6            49    18
##  7            50     1
##  8            54     1
##  9            56    16
## 10            61    26
## # ... with 40 more rows
…
