Desc stats BAFA
…
quarters <- tibble('Quarter' = seq_Rqtr(from=1997.2, to=2003.4))

fByQ <- left_join(quarters, nFailsByQ , by='Quarter')

fByQ

# A tibble: 27 × 2
   Quarter N_FAIL
     <dbl>  <int>
 1   1997.     NA
 2   1997.     NA
 3   1997.      1
 4   1998.      4
 5   1998.      7
 6   1998.      3
 7   1998.      5
 8   1999.      6
 9   1999.      1
10   1999.      3
# … with 17 more rows
…
# I think the number of banks in the DB does not coindice because some bankes were eliminated due to missing values! Use SUR_RATE_IMPLIED.
nIniBanks = filter(aliveByQ, Quarter == 1997.4)$N_ALIVE
sur <- left_join(aliveByQ, fByQ, by='Quarter') %>%
  mutate(., N_FAIL_2 = replace_na(N_FAIL, 0),
         HAZ_RATE = (N_FAIL_2/N_ALIVE)*100,
         HAZ_RATE = (N_FAIL_2/N_ALIVE)*100,
         CUM_FAIL_2 = cumsum(N_FAIL_2),
          SUR_RATE = (N_ALIVE/nIniBanks)*100,
          SUR_RATE_IMPLIED = {((nIniBanks - CUM_FAIL_2)/nIniBanks) %>%
                              round(., digits=2)})
sur

# A tibble: 27 × 8
   Quarter N_ALIVE N_FAIL N_FAIL_2 HAZ_RATE CUM_FAIL_2 SUR_RATE SUR_RATE_IMPLIED
     <dbl>   <dbl>  <int>    <int>    <dbl>      <int>    <dbl>            <dbl>
 1   1997.       0     NA        0  NaN              0      0               1   
 2   1997.     126     NA        0    0              0     92.6             1   
 3   1997.     136      1        1    0.735          1    100               0.99
 4   1998.     135      4        4    2.96           5     99.3             0.96
 5   1998.     122      7        7    5.74          12     89.7             0.91
 6   1998.     129      3        3    2.33          15     94.9             0.89
 7   1998.     127      5        5    3.94          20     93.4             0.85
 8   1999.     120      6        6    5             26     88.2             0.81
 9   1999.     117      1        1    0.855         27     86.0             0.8 
10   1999.     117      3        3    2.56          30     86.0             0.78
# … with 17 more rows
…
quarters <- tibble('Quarter' = seq_Rqtr(from=1997.2, to=2004.4))

fByQ <- left_join(quarters, nFailsByQ , by='Quarter')

# These does NOT exclude banks with zero links in the network
# Using the sample will give you different values because banks with no links are excluded in the sample
fByQ

# A tibble: 31 × 2
   Quarter N_FAIL
     <dbl>  <int>
 1   1997.     NA
 2   1997.     NA
 3   1997.     NA
 4   1998.     NA
 5   1998.     NA
 6   1998.     NA
 7   1998.     NA
 8   1999.      4
 9   1999.      1
10   1999.      3
# … with 21 more rows
…
  c('Quarter' = thisQ, 'N_ALIVE' = nAlive)
})

nIniBanks = filter(aliveByQ, Quarter == 1997.4)$N_ALIVE
sur <- left_join(aliveByQ, fByQ, by='Quarter') %>%
  mutate(., 
         N_FAIL_2 = replace_na(N_FAIL, 0),
         HAZ_RATE = (N_FAIL_2/N_ALIVE)*100,
         SUR_RATE = (N_ALIVE/nIniBanks)*100,
         SUR_RATE_IMPLIED = nIniBanks - cumsum(N_FAIL_2))

sur

# A tibble: 31 × 7
   Quarter N_ALIVE N_FAIL N_FAIL_2 HAZ_RATE SUR_RATE SUR_RATE_IMPLIED
     <dbl>   <dbl>  <int>    <int>    <dbl>    <dbl>            <dbl>
 1   1997.       0     NA        0   NaN         0                 98
 2   1997.      88     NA        0     0        89.8               98
 3   1997.      98     NA        0     0       100                 98
 4   1998.      98     NA        0     0       100                 98
 5   1998.      88     NA        0     0        89.8               98
 6   1998.      98     NA        0     0       100                 98
 7   1998.      98     NA        0     0       100                 98
 8   1999.      95      4        4     4.21     96.9               94
 9   1999.      95      1        1     1.05     96.9               93
10   1999.      93      3        3     3.23     94.9               90
# … with 21 more rows
…
